{
    "dev": {
        "aws_region": "us-east-1", 
        "django_settings": "areadoinvestidorbackend.settings", 
        "profile_name": "default", 
        "project_name": "areadoinvestido", 
        "runtime": "python3.6", 
        "binary_support": false,
        "s3_bucket": "deploy-backend-zappa",
        "aws_environment_variables": {
            "RDS_DB_NOME": "glebba",
            "RDS_DB_USUARIO": "{DB_USUARIO}",
            "RDS_DB_SENHA": "{DB_SENHA}",
            "RDS_SERVIDOR": "{SERVIDOR}",
            "RDS_SERVIDOR_PORTA": "3306",
            "TOKENCLICKSIGN": "{TOKENCLICKSIGN}"
        }
    }
}
